<svg xmlns="http://www.w3.org/2000/svg" width="12" height="7.333" viewBox="0 0 12 7.333">
  <g id="Group_4046" data-name="Group 4046" transform="translate(12 7.333) rotate(180)">
    <path id="ic-arrow" d="M2.276.391A1.333,1.333,0,0,0,.391,2.276L2.781,4.667l1.4,1.31s-.765.8-1.4,1.356L.391,9.724a1.333,1.333,0,1,0,1.885,1.885L6.943,6.943a1.333,1.333,0,0,0,0-1.885Z" transform="translate(0 7.333) rotate(-90)" fill="#fff"/>
  </g>
</svg>
